"../../../../../../Users/john/Documents/Unreal Projects/BasicAI/Content/Mannequin/Character/Mesh/UE4_Mannequin_Skeleton.uasset" 0
"../../../../../../Users/john/Documents/Unreal Projects/BasicAI/Content/Mannequin/Animations/ThirdPersonJump_End.uasset" 1
"../../../../../../Users/john/Documents/Unreal Projects/BasicAI/Content/ThirdPersonBP/ThirdPersonOverview.uasset" 2
"../../../../../../Users/john/Documents/Unreal Projects/BasicAI/Content/Mannequin/Animations/ThirdPerson_Jump.uasset" 3
"../../../../../../Users/john/Documents/Unreal Projects/BasicAI/Content/Mannequin/Animations/ThirdPersonJump_Loop.uasset" 4
"../../../../../../Users/john/Documents/Unreal Projects/BasicAI/Content/Mannequin/Animations/ThirdPersonJump_Start.uasset" 5
"../../../../../../Users/john/Documents/Unreal Projects/BasicAI/Content/Mannequin/Animations/ThirdPersonIdle.uasset" 6
"../../../../../../Users/john/Documents/Unreal Projects/BasicAI/Content/Mannequin/Animations/ThirdPersonRun.uasset" 7
"../../../../../../Users/john/Documents/Unreal Projects/BasicAI/Content/Mannequin/Animations/ThirdPersonWalk.uasset" 8
"../../../../../../Users/john/Documents/Unreal Projects/BasicAI/Content/Mannequin/Animations/ThirdPerson_IdleRun_2D.uasset" 9
"../../../Engine/Content/EditorBlueprintResources/StandardMacros.uasset" 10
"../../../../../../Users/john/Documents/Unreal Projects/BasicAI/Content/Mannequin/Animations/ThirdPerson_AnimBP.uasset" 11
"../../../Engine/Content/Functions/Engine_MaterialFunctions02/Utility/BlendAngleCorrectedNormals.uasset" 12
"../../../Engine/Content/Functions/MaterialLayerFunctions/MatLayerBlend_NormalBlend.uasset" 13
"../../../Engine/Content/Functions/MaterialLayerFunctions/MatLayerBlend_Simple.uasset" 14
"../../../../../../Users/john/Documents/Unreal Projects/BasicAI/Content/Mannequin/Character/Materials/MaterialLayers/T_ML_Rubber_Blue_01_D.uasset" 15
"../../../../../../Users/john/Documents/Unreal Projects/BasicAI/Content/Mannequin/Character/Materials/MaterialLayers/T_ML_Rubber_Blue_01_N.uasset" 16
"../../../../../../Users/john/Documents/Unreal Projects/BasicAI/Content/Mannequin/Character/Materials/MaterialLayers/ML_GlossyBlack_Latex_UE4.uasset" 17
"../../../../../../Users/john/Documents/Unreal Projects/BasicAI/Content/Mannequin/Character/Materials/MaterialLayers/ML_Plastic_Shiny_Beige.uasset" 18
"../../../../../../Users/john/Documents/Unreal Projects/BasicAI/Content/Mannequin/Character/Textures/UE4_LOGO_CARD.uasset" 19
"../../../../../../Users/john/Documents/Unreal Projects/BasicAI/Content/Mannequin/Character/Materials/MaterialLayers/ML_Plastic_Shiny_Beige_LOGO.uasset" 20
"../../../../../../Users/john/Documents/Unreal Projects/BasicAI/Content/Mannequin/Character/Materials/MaterialLayers/T_ML_Aluminum01.uasset" 21
"../../../../../../Users/john/Documents/Unreal Projects/BasicAI/Content/Mannequin/Character/Materials/MaterialLayers/T_ML_Aluminum01_N.uasset" 22
"../../../../../../Users/john/Documents/Unreal Projects/BasicAI/Content/Mannequin/Character/Materials/MaterialLayers/ML_SoftMetal_UE4.uasset" 23
"../../../../../../Users/john/Documents/Unreal Projects/BasicAI/Content/Mannequin/Character/Textures/UE4_Mannequin__normals.uasset" 24
"../../../../../../Users/john/Documents/Unreal Projects/BasicAI/Content/Mannequin/Character/Textures/UE4_Mannequin_MAT_MASKA.uasset" 25
"../../../../../../Users/john/Documents/Unreal Projects/BasicAI/Content/Mannequin/Character/Materials/M_UE4Man_Body.uasset" 26
"../../../../../../Users/john/Documents/Unreal Projects/BasicAI/Content/Mannequin/Character/Textures/UE4Man_Logo_N.uasset" 27
"../../../../../../Users/john/Documents/Unreal Projects/BasicAI/Content/Mannequin/Character/Materials/M_UE4Man_ChestLogo.uasset" 28
"../../../../../../Users/john/Documents/Unreal Projects/BasicAI/Content/Mannequin/Character/Mesh/SK_Mannequin_PhysicsAsset.uasset" 29
"../../../../../../Users/john/Documents/Unreal Projects/BasicAI/Content/Mannequin/Character/Mesh/SK_Mannequin.uasset" 30
"../../../../../../Users/john/Documents/Unreal Projects/BasicAI/Content/ThirdPersonBP/ThirdPersonCharacter.uasset" 31
"../../../../../../Users/john/Documents/Unreal Projects/BasicAI/Content/ThirdPersonBP/Blueprints/ThirdPersonCharacter.uasset" 32
"../../../../../../Users/john/Documents/Unreal Projects/BasicAI/Content/ThirdPersonBP/Blueprints/ThirdPersonGameMode.uasset" 33
"../../../Engine/Content/Animation/DefaultAnimCurveCompressionSettings.uasset" 34
"../../../Engine/Content/Functions/Engine_MaterialFunctions01/Opacity/CameraDepthFade.uasset" 35
"../../../Engine/Content/EngineMaterials/T_Default_Material_Grid_M.uasset" 36
"../../../Engine/Content/EngineMaterials/T_Default_Material_Grid_N.uasset" 37
"../../../Engine/Content/EngineMaterials/WorldGridMaterial.uasset" 38
"../../../Engine/Content/ArtTools/RenderToTexture/Meshes/S_1_Unit_Plane.uasset" 39
"../../../Engine/Content/EngineMaterials/DefaultMaterial.uasset" 40
"../../../Engine/Content/BasicShapes/Cone.uasset" 41
"../../../Engine/Content/BasicShapes/Cube.uasset" 42
"../../../Engine/Content/BasicShapes/Cylinder.uasset" 43
"../../../Engine/Content/BasicShapes/Plane.uasset" 44
"../../../Engine/Content/BasicShapes/Sphere.uasset" 45
"../../../Engine/Content/EditorLandscapeResources/DataLayer.uasset" 46
"../../../Engine/Content/EditorMaterials/GizmoMaterial.uasset" 47
"../../../Engine/Content/EditorMaterials/MAT_Groups_Toggle.uasset" 48
"../../../Engine/Content/EditorMaterials/MAT_Groups_Visibility.uasset" 49
"../../../Engine/Content/EditorMaterials/PreviewShadowIndicator.uasset" 50
"../../../Engine/Content/EditorMaterials/PreviewShadowIndicatorMaterial.uasset" 51
"../../../Engine/Content/EditorMaterials/MatineeGroups/MAT_ColorTrack.uasset" 52
"../../../Engine/Content/EditorMaterials/MatineeGroups/MAT_Groups_Anim.uasset" 53
"../../../Engine/Content/EditorMaterials/MatineeGroups/MAT_Groups_AudioMaster.uasset" 54
"../../../Engine/Content/EditorMaterials/MatineeGroups/MAT_Groups_Director.uasset" 55
"../../../Engine/Content/EditorMaterials/MatineeGroups/MAT_Groups_Event.uasset" 56
"../../../Engine/Content/EditorMaterials/MatineeGroups/MAT_Groups_Fade.uasset" 57
"../../../Engine/Content/EditorMaterials/MatineeGroups/MAT_Groups_Float.uasset" 58
"../../../Engine/Content/EditorMaterials/MatineeGroups/MAT_Groups_Move.uasset" 59
"../../../Engine/Content/EditorMaterials/MatineeGroups/MAT_Groups_Slomo.uasset" 60
"../../../Engine/Content/EditorMaterials/MatineeGroups/MAT_Groups_Sound.uasset" 61
"../../../Engine/Content/EditorMaterials/MatineeGroups/MAT_Groups_Vector.uasset" 62
"../../../Engine/Content/EditorMaterials/ParticleSystems/PSysThumbnail_NoImage.uasset" 63
"../../../Engine/Content/EditorMaterials/ParticleSystems/PSysThumbnail_OOD.uasset" 64
"../../../Engine/Content/EditorMaterials/Camera/CineMat.uasset" 65
"../../../Engine/Content/EditorMaterials/Camera/MI_CineMat_Rig.uasset" 66
"../../../Engine/Content/EditorMeshes/Camera/SM_CraneRig_Arm.uasset" 67
"../../../Engine/Content/EditorMeshes/Camera/SM_CraneRig_Base.uasset" 68
"../../../Engine/Content/EditorMeshes/Camera/SM_CraneRig_Body.uasset" 69
"../../../Engine/Content/EditorMeshes/Camera/SM_CraneRig_Mount.uasset" 70
"../../../Engine/Content/EditorMeshes/Camera/SM_RailRig_Mount.uasset" 71
"../../../Engine/Content/EditorMeshes/Camera/SM_RailRig_Track.uasset" 72
"../../../Engine/Content/EditorResources/BSPVertex.uasset" 73
"../../../Engine/Content/EditorResources/EmptyActor.uasset" 74
"../../../Engine/Content/EditorResources/S_Actor.uasset" 75
"../../../Engine/Content/EditorResources/S_Note.uasset" 76
"../../../Engine/Content/EditorResources/S_Solver.uasset" 77
"../../../Engine/Content/EditorResources/S_Trigger.uasset" 78
"../../../Engine/Content/EditorResources/LightIcons/S_LightError.uasset" 79
"../../../Engine/Content/EditorResources/SequenceRecorder/Countdown.uasset" 80
"../../../Engine/Content/EditorResources/SequenceRecorder/RecordingIndicator.uasset" 81
"../../../Engine/Content/EditorSounds/Notifications/CompileFailed.uasset" 82
"../../../Engine/Content/EditorSounds/Notifications/CompileFailed_Cue.uasset" 83
"../../../Engine/Content/EditorSounds/Notifications/CompileSuccess.uasset" 84
"../../../Engine/Content/EditorSounds/Notifications/CompileStart_Cue.uasset" 85
"../../../Engine/Content/EditorSounds/Notifications/CompileSuccess_Cue.uasset" 86
"../../../Engine/Content/EngineDamageTypes/DmgTypeBP_Environmental.uasset" 87
"../../../Engine/Content/EngineDebugMaterials/HeatmapGradient.uasset" 88
"../../../Engine/Content/EngineDebugMaterials/BoneWeightMaterial.uasset" 89
"../../../Engine/Content/EngineDebugMaterials/ClothMaterial.uasset" 90
"../../../Engine/Content/EngineDebugMaterials/ClothMaterial_WF.uasset" 91
"../../../Engine/Content/EngineDebugMaterials/DebugEditorMaterial.uasset" 92
"../../../Engine/Content/EngineDebugMaterials/DebugMeshMaterial.uasset" 93
"../../../Engine/Content/EngineDebugMaterials/GeomMaterial.uasset" 94
"../../../Engine/Content/EngineDebugMaterials/M_SimpleTranslucent.uasset" 95
"../../../Engine/Content/Functions/Engine_MaterialFunctions02/Utility/CameraDirectionVector.uasset" 96
"../../../Engine/Content/EngineDebugMaterials/VolumeToRender.uasset" 97
"../../../Engine/Content/EngineDebugMaterials/M_VolumeRenderSphereTracePP.uasset" 98
"../../../Engine/Content/EngineDebugMaterials/WireframeMaterial.uasset" 99
"../../../Engine/Content/EngineFonts/Faces/RobotoBold.uasset" 100
"../../../Engine/Content/EngineFonts/Faces/RobotoBoldItalic.uasset" 101
"../../../Engine/Content/EngineFonts/Faces/RobotoItalic.uasset" 102
"../../../Engine/Content/EngineFonts/Faces/RobotoLight.uasset" 103
"../../../Engine/Content/EngineFonts/Faces/RobotoRegular.uasset" 104
"../../../Engine/Content/EngineFonts/Roboto.uasset" 105
"../../../Engine/Content/EngineMaterials/BaseFlattenDiffuseMap.uasset" 106
"../../../Engine/Content/EngineMaterials/BaseFlattenEmissiveMap.uasset" 107
"../../../Engine/Content/EngineMaterials/BaseFlattenGrayscaleMap.uasset" 108
"../../../Engine/Content/EngineMaterials/BaseFlattenNormalMap.uasset" 109
"../../../Engine/Content/EngineMaterials/BaseFlattenMaterial.uasset" 110
"../../../Engine/Content/EngineMaterials/BlueNoise.uasset" 111
"../../../Engine/Content/EngineMaterials/DefaultBloomKernel.uasset" 112
"../../../Engine/Content/EngineMaterials/DefaultBokeh.uasset" 113
"../../../Engine/Content/EngineMaterials/DefaultDiffuse.uasset" 114
"../../../Engine/Content/EngineMaterials/DefaultDeferredDecalMaterial.uasset" 115
"../../../Engine/Content/EngineMaterials/DefaultLightFunctionMaterial.uasset" 116
"../../../Engine/Content/EngineMaterials/DefaultPhysicalMaterial.uasset" 117
"../../../Engine/Content/Functions/Engine_MaterialFunctions02/Utility/BreakOutFloat2Components.uasset" 118
"../../../Engine/Content/EngineMaterials/DefaultPostProcessMaterial.uasset" 119
"../../../Engine/Content/EngineFonts/RobotoDistanceField.uasset" 120
"../../../Engine/Content/EngineMaterials/DefaultTextMaterialOpaque.uasset" 121
"../../../Engine/Content/EngineMaterials/DefaultVirtualTextureMaterial.uasset" 122
"../../../Engine/Content/EngineMaterials/DefaultWhiteGrid.uasset" 123
"../../../Engine/Content/EngineMaterials/EditorBrushMaterial.uasset" 124
"../../../Engine/Content/EngineMaterials/DefaultWhiteGrid_Low.uasset" 125
"../../../Engine/Content/EngineMaterials/EmissiveMeshMaterial.uasset" 126
"../../../Engine/Content/EngineMaterials/Good64x64TilingNoiseHighFreq.uasset" 127
"../../../Engine/Content/EngineMaterials/MiniFont.uasset" 128
"../../../Engine/Content/EngineMaterials/InvalidLightmapSettings.uasset" 129
"../../../Engine/Content/EngineMaterials/M_InvalidLightmapSettings.uasset" 130
"../../../Engine/Content/Functions/Engine_MaterialFunctions02/WorldPositionOffset/CameraOffset.uasset" 131
"../../../Engine/Content/EngineMaterials/PhAT_JointLimitMaterial.uasset" 132
"../../../Engine/Content/EngineMaterials/PreintegratedSkinBRDF.uasset" 133
"../../../Engine/Content/EngineMaterials/RemoveSurfaceMaterial.uasset" 134
"../../../Engine/Content/EngineMaterials/WeightMapPlaceholderTexture.uasset" 135
"../../../Engine/Content/EngineResources/WhiteSquareTexture.uasset" 136
"../../../Engine/Content/EngineMaterials/Widget3DPassThrough.uasset" 137
"../../../Engine/Content/EngineMaterials/Widget3DPassThrough_Masked.uasset" 138
"../../../Engine/Content/EngineMaterials/Widget3DPassThrough_Opaque.uasset" 139
"../../../Engine/Content/EngineMaterials/Widget3DPassThrough_Masked_OneSided.uasset" 140
"../../../Engine/Content/EngineMaterials/Widget3DPassThrough_Opaque_OneSided.uasset" 141
"../../../Engine/Content/EngineMaterials/Widget3DPassThrough_Translucent.uasset" 142
"../../../Engine/Content/EngineMaterials/Widget3DPassThrough_Translucent_OneSided.uasset" 143
"../../../Engine/Content/EngineMeshes/Cylinder.uasset" 144
"../../../Engine/Content/EngineMeshes/Sphere.uasset" 145
"../../../Engine/Content/EngineResources/Black.uasset" 146
"../../../Engine/Content/EngineResources/DefaultTexture.uasset" 147
"../../../Engine/Content/EngineResources/DefaultTextureCube.uasset" 148
"../../../Engine/Content/EngineResources/DefaultVolumeTexture2D.uasset" 149
"../../../Engine/Content/EngineResources/DefaultVolumeTexture.uasset" 150
"../../../Engine/Content/EngineResources/GradientTexture0.uasset" 151
"../../../Engine/Content/EngineSounds/Master.uasset" 152
"../../../Engine/Content/Functions/Engine_MaterialFunctions01/Shading/ConvertFromDiffSpec.uasset" 153
"../../../Engine/Content/Functions/Engine_MaterialFunctions01/Shading/PowerToRoughness.uasset" 154
"../../../Engine/Content/Maps/Templates/Thumbnails/Default.uasset" 155
"../../../Engine/Content/Maps/Templates/Thumbnails/VR-Basic.uasset" 156
"../../../Engine/Content/MobileResources/T_MobileControls_texture.uasset" 157
"../../../Engine/Content/MobileResources/T_MobileMenu2.uasset" 158
"../../../Engine/Content/MobileResources/HUD/AnalogHat.uasset" 159
"../../../Engine/Content/MobileResources/HUD/VirtualJoystick_Background.uasset" 160
"../../../Engine/Content/MobileResources/HUD/VirtualJoystick_Thumb.uasset" 161
"../../../Engine/Content/MobileResources/HUD/DefaultVirtualJoysticks.uasset" 162
"../../../Engine/Content/MobileResources/HUD/LeftVirtualJoystickOnly.uasset" 163
"../../../Engine/Content/MobileResources/HUD/MobileHUDButton1_off.uasset" 164
"../../../Engine/Content/MobileResources/HUD/MobileHUDButton1_on.uasset" 165
"../../../Engine/Content/MobileResources/HUD/MobileHUDButton2_off.uasset" 166
"../../../Engine/Content/MobileResources/HUD/MobileHUDButton2_on.uasset" 167
"../../../Engine/Content/MobileResources/HUD/MobileHUDButton3.uasset" 168
"../../../Engine/Content/MobileResources/HUD/MobileHUDButtonFire.uasset" 169
"../../../Engine/Content/MobileResources/HUD/MobileHUDDirectionPad.uasset" 170
"../../../Engine/Content/MobileResources/HUD/MobileHUDDirectionPad2.uasset" 171
"../../../Engine/Content/MobileResources/HUD/MobileHUDDirectionPad3.uasset" 172
"../../../Engine/Content/MobileResources/HUD/MobileHUDDirectionStick.uasset" 173
"../../../Engine/Content/MobileResources/HUD/T_Castle_ThumbstickInner.uasset" 174
"../../../Engine/Content/MobileResources/HUD/T_Castle_ThumbstickOutter.uasset" 175
"../../../Engine/Content/Tutorial/ContentIntroCurve.uasset" 176
"../../../Engine/Content/Tutorial/Basics/LevelEditorAttract.uasset" 177
"../../../Engine/Content/Tutorial/Basics/TutorialAssets/icon_tab_Levels_40x.uasset" 178
"../../../Engine/Content/Tutorial/Basics/LevelEditorOverview.uasset" 179
"../../../Engine/Content/Tutorial/Basics/TutorialAssets/CameraActor_64x.uasset" 180
"../../../Engine/Content/Tutorial/Basics/ViewportsTutorial.uasset" 181
"../../../Engine/Content/VREditor/LaserPointer/VR_LaserPower_01.uasset" 182
"../../../Engine/Content/VREditor/TransformGizmo/TransformGizmoMaterial.uasset" 183
"../../../Engine/Content/VREditor/TransformGizmo/TranslucentTransformGizmoMaterial.uasset" 184
"../../../Engine/Content/VREditor/TransformGizmo/BoundingBoxCorner.uasset" 185
"../../../Engine/Content/VREditor/TransformGizmo/BoundingBoxEdge.uasset" 186
"../../../Engine/Content/VREditor/TransformGizmo/PlaneTranslationHandle.uasset" 187
"../../../Engine/Content/VREditor/TransformGizmo/Main.uasset" 188
"../../../Engine/Content/VREditor/TransformGizmo/Xray.uasset" 189
"../../../Engine/Content/VREditor/TransformGizmo/SM_Sequencer_Key.uasset" 190
"../../../Engine/Content/VREditor/TransformGizmo/SM_Sequencer_Node.uasset" 191
"../../Plugins/2D/Paper2D/Content/PlaceholderTextures/DummySpriteTexture.uasset" 192
"../../Plugins/2D/Paper2D/Content/DummySprite.uasset" 193
"../../Plugins/2D/Paper2D/Content/DefaultPaperTerrainMaterial.uasset" 194
"../../Plugins/2D/Paper2D/Content/DummySpriteTexture.uasset" 195
"../../Plugins/2D/Paper2D/Content/DefaultSpriteMaterial.uasset" 196
"../../Plugins/2D/Paper2D/Content/MaskedUnlitSpriteMaterial.uasset" 197
"../../Plugins/2D/Paper2D/Content/OpaqueUnlitSpriteMaterial.uasset" 198
"../../Plugins/Runtime/Oculus/OculusVR/Content/OculusMR_RenderTarget.uasset" 199
"../../../Engine/Content/Functions/Engine_MaterialFunctions02/Utility/BreakOutFloat4Components.uasset" 200
"../../../Engine/Content/Functions/Engine_MaterialFunctions02/Utility/MakeFloat2.uasset" 201
"../../../Engine/Content/Functions/Engine_MaterialFunctions02/Utility/MakeFloat3.uasset" 202
"../../Plugins/Runtime/Oculus/OculusVR/Content/Materials/OculusMR_ChromaKey.uasset" 203
"../../Plugins/Runtime/Oculus/OculusVR/Content/Materials/OculusMR_ChromaKey_Lit.uasset" 204
"../../Plugins/Runtime/Oculus/OculusVR/Content/Materials/OculusMR_OpaqueColoredMaterial.uasset" 205
"../../Plugins/Runtime/Oculus/OculusVR/Content/Materials/OculusMR_WhiteMaterial.uasset" 206
"../../../../../../Users/john/Documents/Unreal Projects/BasicAI/Content/ThirdPersonBP/Blueprints/BB_Enemy.uasset" 207
"../../../../../../Users/john/Documents/Unreal Projects/BasicAI/Content/ThirdPersonBP/Blueprints/BTT_ChasePlayer.uasset" 208
"../../../../../../Users/john/Documents/Unreal Projects/BasicAI/Content/ThirdPersonBP/Blueprints/BTT_FindRandomPatrol.uasset" 209
"../../../../../../Users/john/Documents/Unreal Projects/BasicAI/Content/ThirdPersonBP/Blueprints/BT_Enemy.uasset" 210
"../../../../../../Users/john/Documents/Unreal Projects/BasicAI/Content/ThirdPersonBP/Blueprints/Enemy_Controller.uasset" 211
"../../../../../../Users/john/Documents/Unreal Projects/BasicAI/Content/ThirdPersonBP/Blueprints/Enemy_Character.uasset" 212
"../../../Engine/Content/EngineSky/C_Sky_Cloud_Color.uasset" 213
"../../../Engine/Content/EngineSky/C_Sky_Horizon_Color.uasset" 214
"../../../Engine/Content/EngineSky/C_Sky_Zenith_Color.uasset" 215
"../../../Engine/Content/EngineSky/T_Sky_Blue.uasset" 216
"../../../Engine/Content/EngineSky/T_Sky_Clouds_M.uasset" 217
"../../../Engine/Content/EngineSky/T_Sky_Stars.uasset" 218
"../../../Engine/Content/EngineSky/M_Sky_Panning_Clouds2.uasset" 219
"../../../Engine/Content/EngineSky/SM_SkySphere.uasset" 220
"../../../Engine/Content/EngineSky/BP_Sky_Sphere.uasset" 221
"../../../../../../Users/john/Documents/Unreal Projects/BasicAI/Content/ThirdPersonBP/Maps/ThirdPersonExampleMap_BuiltData.uasset" 222
"../../../../../../Users/john/Documents/Unreal Projects/BasicAI/Content/Geometry/Meshes/CubeMaterial.uasset" 223
"../../../../../../Users/john/Documents/Unreal Projects/BasicAI/Content/Geometry/Meshes/1M_Cube.uasset" 224
"../../../../../../Users/john/Documents/Unreal Projects/BasicAI/Content/Geometry/Meshes/1M_Cube_Chamfer.uasset" 225
"../../../../../../Users/john/Documents/Unreal Projects/BasicAI/Content/Geometry/Meshes/TemplateFloor.uasset" 226
"../../../../../../Users/john/Documents/Unreal Projects/BasicAI/Content/ThirdPerson/Meshes/RampMaterial.uasset" 227
"../../../../../../Users/john/Documents/Unreal Projects/BasicAI/Content/ThirdPerson/Meshes/Bump_StaticMesh.uasset" 228
"../../../../../../Users/john/Documents/Unreal Projects/BasicAI/Content/ThirdPerson/Meshes/LeftArm_StaticMesh.uasset" 229
"../../../../../../Users/john/Documents/Unreal Projects/BasicAI/Content/ThirdPerson/Meshes/Linear_Stair_StaticMesh.uasset" 230
"../../../../../../Users/john/Documents/Unreal Projects/BasicAI/Content/ThirdPerson/Meshes/Ramp_StaticMesh.uasset" 231
"../../../../../../Users/john/Documents/Unreal Projects/BasicAI/Content/ThirdPerson/Meshes/RightArm_StaticMesh.uasset" 232
"../../../../../../Users/john/Documents/Unreal Projects/BasicAI/Content/ThirdPersonBP/Maps/ThirdPersonExampleMap.umap" 233
"../../../Engine/Content/Maps/Entry_BuiltData.uasset" 234
"../../../Engine/Content/Maps/Entry.umap" 235
